{
"kappa":[{"density":2,"friction":0,"bounce":0,"filter":{"categoryBits":1,"maskBits":65535},"shape":[18.999999284744263,27.000000476837158,13.504695773124695,26.83439327776432,5.0000001192092896,20.000000476837158,4.264695823192596,7.374392747879028,5.804696023464203,3.7343928813934326]},{"density":2,"friction":0,"bounce":0,"filter":{"categoryBits":1,"maskBits":65535},"shape":[5.804696023464203,3.7343928813934326,10.704696774482727,0.3743927478790283,18.12469720840454,0.3043944835662842,23.72469687461853,4.854393482208252,23.44469714164734,20.884393215179443,18.999999284744263,27.000000476837158]}]
,"kappa100":[{"density":2,"friction":0,"bounce":0,"filter":{"categoryBits":1,"maskBits":65535},"shape":[18.544698476791382,26.48439361155033,13.084696173667908,26.41439451277256,5.314696490764618,18.504392981529236,4.894696891307831,7.094394683837891,7.2046959400177,3.454394817352295]},{"density":2,"friction":0,"bounce":0,"filter":{"categoryBits":1,"maskBits":65535},"shape":[7.2046959400177,3.454394817352295,12.804696440696716,0.6543941497802734,18.964696407318115,1.7743947505950928,23.374698877334595,5.904394149780273,23.024699211120605,20.954393982887268,18.544698476791382,26.48439361155033]}]
,"kappa1000":[{"density":2,"friction":0,"bounce":0,"filter":{"categoryBits":1,"maskBits":65535},"shape":[20.224698543548584,25.574393540620804,13.924696207046509,26.41439451277256,6.574696958065033,20.67439341545105,3.284695714712143,11.7843918800354,3.914696991443634,7.024394750595093]},{"density":2,"friction":0,"bounce":0,"filter":{"categoryBits":1,"maskBits":65535},"shape":[3.914696991443634,7.024394750595093,9.16469657421112,2.1243927478790283,16.37469720840454,1.1443936824798584,21.904698610305786,5.0643932819366455,23.024699211120605,20.114393949508667,20.224698543548584,25.574393540620804]}]
,"kappa5000":[{"density":2,"friction":0,"bounce":0,"filter":{"categoryBits":1,"maskBits":65535},"shape":[22.149695873260498,21.164394199848175,18.26469874382019,26.694392576813698,14,27.000000476837158,6.504696190357208,21.37439399957657,3.6346964240074158,14.374394416809082,4.474696457386017,5.344394683837891]},{"density":2,"friction":0,"bounce":0,"filter":{"categoryBits":1,"maskBits":65535},"shape":[4.474696457386017,5.344394683837891,10.774696707725525,0.7243940830230713,19.6646990776062,1.8443963527679443,22.779698610305786,5.624394416809082,23.86469841003418,14.584393382072449,22.149695873260498,21.164394199848175]}]
,"kappa10000":[{"density":2,"friction":0,"bounce":0,"filter":{"categoryBits":1,"maskBits":65535},"shape":[21.064699411392212,23.194393932819366,16.234697341918945,27.11439384520054,10.354697108268738,24.734393507242203,4.334696590900421,17.314394116401672,3.984696090221405,6.1843955516815186]},{"density":2,"friction":0,"bounce":0,"filter":{"categoryBits":1,"maskBits":65535},"shape":[3.984696090221405,6.1843955516815186,10.14469563961029,0.7943956851959229,18.61469841003418,1.0743954181671143,22.254698276519775,4.994395017623901,23.86469841003418,14.654394149780273,21.064699411392212,23.194393932819366]}]
}