{
"cheer":[{"density":2,"friction":0,"bounce":0,"filter":{"categoryBits":1,"maskBits":65535},"shape":[13.924696207046509,3.5243947505950928,26.594695806503296,23.894393265247345,1.6046947091817856,23.894393265247345]}]
,"cheer100":[{"density":2,"friction":0,"bounce":0,"filter":{"categoryBits":1,"maskBits":65535},"shape":[14.134697675704956,1.354393482208252,24.564696073532104,19.41439378261566,14.414697408676147,27.674393389374018,3.4946963489055634,19.204393982887268]}]
,"cheer1000":[{"density":2,"friction":0,"bounce":0,"filter":{"categoryBits":1,"maskBits":65535},"shape":[13.784696340560913,1.704394817352295,26.314696073532104,13.884393215179443,19.874695539474487,26.064393907785416,7.97469687461853,26.134393841028214,1.4646965116262436,14.23439371585846]}]
,"cheer5000":[{"density":2,"friction":0,"bounce":0,"filter":{"categoryBits":1,"maskBits":65535},"shape":[13.994696974754333,0.7243940830230713,25.19469714164734,10.244393348693848,25.19469714164734,18.08439338207245,13.854697108268738,27.2543937638402,3.0046959817409515,17.594393849372864,2.9346968829631805,10.384393215179443]}]
,"cheer10000":[{"density":2,"friction":0,"bounce":0,"filter":{"categoryBits":1,"maskBits":65535},"shape":[14.204697608947754,21.584393799304962,7.694697141647339,25.6443934738636,7.0646960735321045,17.804393649101257]},{"density":2,"friction":0,"bounce":0,"filter":{"categoryBits":1,"maskBits":65535},"shape":[20.644696474075317,18.29439401626587,20.574698209762573,25.924393206834793,14.204697608947754,21.584393799304962]},{"density":2,"friction":0,"bounce":0,"filter":{"categoryBits":1,"maskBits":65535},"shape":[14.134697675704956,6.254393815994263,20.574698209762573,2.8243954181671143,20.854697942733765,9.614393949508667]},{"density":2,"friction":0,"bounce":0,"filter":{"categoryBits":1,"maskBits":65535},"shape":[20.854697942733765,9.614393949508667,27.01469874382019,13.744393348693848,20.644696474075317,18.29439401626587,14.204697608947754,21.584393799304962,7.0646960735321045,17.804393649101257,1.3246949762105942,13.954393148422241,7.4146974086761475,9.05439281463623,14.134697675704956,6.254393815994263]},{"density":2,"friction":0,"bounce":0,"filter":{"categoryBits":1,"maskBits":65535},"shape":[7.4146974086761475,9.05439281463623,7.344695806503296,2.4743940830230713,14.134697675704956,6.254393815994263]}]
}